Suite    : tut04.basic.pbs_dependency_multi_rose
Task Job : 1/initialize/01 (try 1)
User@Host: skhurana@mom6

==init==
Mon Oct  8 21:21:12 IST 2018
echo 11
2018-10-08T21:21:13+05:30 NORMAL - started
nid02107
2018-10-08T21:21:18+05:30 NORMAL - succeeded
