Suite    : tut04.basic.pbs_dependency_multi_rose
Task Job : 1/work2/01 (try 1)
User@Host: skhurana@mom4

==work2==
Mon Oct  8 21:50:17 IST 2018
2018-10-08T21:50:17+05:30 NORMAL - started
nid00650
2018-10-08T21:50:53+05:30 NORMAL - succeeded
