Suite    : tut04.basic.pbs_dependency_multi_rose
Task Job : 1/cleanup/01 (try 1)
User@Host: skhurana@mom7

==cleanup==
Mon Oct  8 22:38:24 IST 2018
2018-10-08T22:38:24+05:30 INFO - started
nid00651
2018-10-08T22:39:01+05:30 INFO - succeeded
