Suite    : tut04.basic.pbs_dependency_multi_rose
Task Job : 1/cleanup/01 (try 1)
User@Host: skhurana@mom5

==cleanup==
Mon Oct  8 21:21:34 IST 2018
2018-10-08T21:21:34+05:30 NORMAL - started
nid02107
2018-10-08T21:21:40+05:30 NORMAL - succeeded
